^D:\#VISUAL STUDIO CODE\SOURCE\REPOS\OOP\LAB5_6_OOP\LAB5_6_OOP\DEBUG\DATE.OBJ|D:\#VISUAL STUDIO CODE\SOURCE\REPOS\OOP\LAB5_6_OOP\LAB5_6_OOP\DEBUG\MAIN.OBJ|D:\#VISUAL STUDIO CODE\SOURCE\REPOS\OOP\LAB5_6_OOP\LAB5_6_OOP\DEBUG\OFFLINESESSION.OBJ|D:\#VISUAL STUDIO CODE\SOURCE\REPOS\OOP\LAB5_6_OOP\LAB5_6_OOP\DEBUG\ONLINESESSION.OBJ|D:\#VISUAL STUDIO CODE\SOURCE\REPOS\OOP\LAB5_6_OOP\LAB5_6_OOP\DEBUG\STUDENTREQUEST.OBJ
/OUT:"D:\#VISUAL STUDIO CODE\SOURCE\REPOS\OOP\LAB5_6_OOP\DEBUG\LAB5_6_OOP.EXE" /INCREMENTAL /NOLOGO KERNEL32.LIB USER32.LIB GDI32.LIB WINSPOOL.LIB COMDLG32.LIB ADVAPI32.LIB SHELL32.LIB OLE32.LIB OLEAUT32.LIB UUID.LIB ODBC32.LIB ODBCCP32.LIB /MANIFEST /MANIFESTUAC:"level='asInvoker' uiAccess='false'" /manifest:embed /DEBUG:FASTLINK /PDB:"D:\#VISUAL STUDIO CODE\SOURCE\REPOS\OOP\LAB5_6_OOP\DEBUG\LAB5_6_OOP.PDB" /SUBSYSTEM:CONSOLE /TLBID:1 /DYNAMICBASE /NXCOMPAT /IMPLIB:"D:\#VISUAL STUDIO CODE\SOURCE\REPOS\OOP\LAB5_6_OOP\DEBUG\LAB5_6_OOP.LIB" /MACHINE:X86 DEBUG\DATE.OBJ
DEBUG\MAIN.OBJ
DEBUG\OFFLINESESSION.OBJ
DEBUG\ONLINESESSION.OBJ
DEBUG\STUDENTREQUEST.OBJ
