^D:\#VISUAL STUDIO CODE\SEMINAR3_OOP\SEMINAR3_OOP\DEBUG\ACOUSTICWAVE.OBJ|D:\#VISUAL STUDIO CODE\SEMINAR3_OOP\SEMINAR3_OOP\DEBUG\MAIN.OBJ
/OUT:"D:\#VISUAL STUDIO CODE\SEMINAR3_OOP\DEBUG\SEMINAR3_OOP.EXE" /INCREMENTAL /NOLOGO KERNEL32.LIB USER32.LIB GDI32.LIB WINSPOOL.LIB COMDLG32.LIB ADVAPI32.LIB SHELL32.LIB OLE32.LIB OLEAUT32.LIB UUID.LIB ODBC32.LIB ODBCCP32.LIB /MANIFEST /MANIFESTUAC:"level='asInvoker' uiAccess='false'" /manifest:embed /DEBUG:FASTLINK /PDB:"D:\#VISUAL STUDIO CODE\SEMINAR3_OOP\DEBUG\SEMINAR3_OOP.PDB" /SUBSYSTEM:CONSOLE /TLBID:1 /DYNAMICBASE /NXCOMPAT /IMPLIB:"D:\#VISUAL STUDIO CODE\SEMINAR3_OOP\DEBUG\SEMINAR3_OOP.LIB" /MACHINE:X86 DEBUG\ACOUSTICWAVE.OBJ
DEBUG\MAIN.OBJ
^D:\#VISUAL STUDIO CODE\SOURCE\REPOS\OOP\SEMINAR3_OOP\SEMINAR3_OOP\DEBUG\ACOUSTICWAVE.OBJ|D:\#VISUAL STUDIO CODE\SOURCE\REPOS\OOP\SEMINAR3_OOP\SEMINAR3_OOP\DEBUG\MAIN.OBJ
/OUT:"D:\#VISUAL STUDIO CODE\SOURCE\REPOS\OOP\SEMINAR3_OOP\DEBUG\SEMINAR3_OOP.EXE" /INCREMENTAL /NOLOGO KERNEL32.LIB USER32.LIB GDI32.LIB WINSPOOL.LIB COMDLG32.LIB ADVAPI32.LIB SHELL32.LIB OLE32.LIB OLEAUT32.LIB UUID.LIB ODBC32.LIB ODBCCP32.LIB /MANIFEST /MANIFESTUAC:"level='asInvoker' uiAccess='false'" /manifest:embed /DEBUG:FASTLINK /PDB:"D:\#VISUAL STUDIO CODE\SOURCE\REPOS\OOP\SEMINAR3_OOP\DEBUG\SEMINAR3_OOP.PDB" /SUBSYSTEM:CONSOLE /TLBID:1 /DYNAMICBASE /NXCOMPAT /IMPLIB:"D:\#VISUAL STUDIO CODE\SOURCE\REPOS\OOP\SEMINAR3_OOP\DEBUG\SEMINAR3_OOP.LIB" /MACHINE:X86 DEBUG\ACOUSTICWAVE.OBJ
DEBUG\MAIN.OBJ
