^D:\#VISUAL STUDIO CODE\SEMINAR3_OOP\SEMINAR3_OOP\DEBUG\ACOUSTICWAVE.OBJ|D:\#VISUAL STUDIO CODE\SEMINAR3_OOP\SEMINAR3_OOP\DEBUG\MAIN.OBJ
D:\#VISUAL STUDIO CODE\SEMINAR3_OOP\DEBUG\SEMINAR3_OOP.EXE
D:\#VISUAL STUDIO CODE\SEMINAR3_OOP\DEBUG\SEMINAR3_OOP.ILK
D:\#VISUAL STUDIO CODE\SEMINAR3_OOP\DEBUG\SEMINAR3_OOP.PDB
^D:\#VISUAL STUDIO CODE\SOURCE\REPOS\OOP\SEMINAR3_OOP\SEMINAR3_OOP\DEBUG\ACOUSTICWAVE.OBJ|D:\#VISUAL STUDIO CODE\SOURCE\REPOS\OOP\SEMINAR3_OOP\SEMINAR3_OOP\DEBUG\MAIN.OBJ
D:\#VISUAL STUDIO CODE\SOURCE\REPOS\OOP\SEMINAR3_OOP\DEBUG\SEMINAR3_OOP.EXE
D:\#VISUAL STUDIO CODE\SOURCE\REPOS\OOP\SEMINAR3_OOP\DEBUG\SEMINAR3_OOP.ILK
D:\#VISUAL STUDIO CODE\SOURCE\REPOS\OOP\SEMINAR3_OOP\DEBUG\SEMINAR3_OOP.PDB
